<?xml version="1.0" encoding="utf-8"?>
<!-- Generator: Adobe Illustrator 21.0.0, SVG Export Plug-In . SVG Version: 6.00 Build 0)  -->
<svg version="1.1" id="Layer_1" xmlns="http://www.w3.org/2000/svg" xmlns:xlink="http://www.w3.org/1999/xlink" x="0px" y="0px"
	 width="504px" height="144px" viewBox="0 0 504 144" style="enable-background:new 0 0 504 144;" xml:space="preserve">
<style type="text/css">
	.st0{fill:#FFFFFF;}
	.st1{fill:#636466;}
</style>
<g>
	<g>
		<g>
			<path class="st0" d="M24.667,110.262l-0.029-41.387l62.29-31.554l0.051,72.898L24.667,110.262z M27.201,70.448l0.026,37.25
				l57.189-0.04l-0.046-66.17L27.201,70.448z"/>
		</g>
		<g>
			<g>
				<polygon class="st0" points="67.809,56.891 67.832,89.313 67.829,89.313 77.636,100.905 77.697,100.905 77.666,56.884 				"/>
				<polygon class="st0" points="60.409,89.318 60.393,65.634 50.534,65.641 50.551,89.325 50.55,89.325 60.467,100.917 
					77.609,100.905 60.405,89.318 				"/>
				<polygon class="st0" points="43.361,89.33 43.361,89.329 43.358,89.326 43.361,89.326 43.351,74.521 33.261,74.528 
					33.279,100.936 60.441,100.917 43.363,89.33 				"/>
			</g>
			<polygon class="st1" points="52.099,91.147 50.552,89.331 50.536,65.65 52.081,65.649 			"/>
			<polygon class="st1" points="69.381,91.166 67.835,89.294 67.812,56.896 69.358,56.894 			"/>
			<rect x="33.257" y="74.548" class="st1" width="1.588" height="26.35"/>
		</g>
	</g>
	<g>
		<path class="st0" d="M135.35,63.68c-5.06,0.38-10.118,0.779-15.174,1.196c-0.004,4.297-0.008,8.593-0.012,12.89
			c4.814-0.593,9.63-1.16,14.449-1.703c0.137-1.734,0.275-3.467,0.412-5.197c2.277-0.22,4.554-0.436,6.832-0.646
			c-0.011,3.849-0.022,7.699-0.033,11.548c-11.812,1.491-23.607,3.16-35.381,5.008c-0.001-1.889-0.003-3.777-0.004-5.666
			c1.585-0.543,3.171-1.078,4.757-1.606c-0.001-11.105-0.002-22.211-0.003-33.318c-1.593-0.28-3.186-0.564-4.779-0.853
			c-0.001-1.9-0.003-3.799-0.004-5.699c1.594-0.005,3.188-0.011,4.782-0.016c10.23-0.035,20.461-0.066,30.692-0.095
			c-0.011,3.86-0.022,7.72-0.033,11.58c-2.301,0.084-4.602,0.17-6.903,0.258c-0.13-1.713-0.259-3.427-0.389-5.144
			c-4.789,0.11-9.578,0.225-14.366,0.345c-0.003,3.781-0.006,7.561-0.009,11.341c5.06-0.307,10.121-0.6,15.183-0.879
			C135.36,59.243,135.355,61.462,135.35,63.68z"/>
		<path class="st0" d="M179.557,51.631c-2.252,0.071-4.503,0.144-6.755,0.219c-0.383-1.766-0.766-3.536-1.148-5.312
			c-0.78-0.412-1.919-0.767-3.418-1.063c-1.499-0.297-3.093-0.435-4.779-0.405c-2.467,0.041-4.376,0.539-5.727,1.503
			c-1.35,0.962-2.028,2.197-2.034,3.685c-0.005,1.378,0.695,2.483,2.099,3.303c1.404,0.823,3.831,1.642,7.281,2.445
			c4.949,0.99,8.698,2.386,11.25,4.188c2.551,1.804,3.819,4.245,3.805,7.369c-0.015,3.265-1.55,5.95-4.601,8.137
			c-3.051,2.184-7.063,3.565-12.033,4.108c-3.554,0.388-6.76,0.253-9.62-0.451c-2.86-0.704-5.24-1.869-7.143-3.517
			c0.01-2.899,0.019-5.797,0.029-8.696c2.32-0.19,4.64-0.375,6.961-0.555c0.311,1.911,0.623,3.817,0.934,5.718
			c0.901,0.587,2.125,1.022,3.675,1.309c1.548,0.287,3.279,0.335,5.189,0.157c2.465-0.23,4.342-0.842,5.63-1.83
			c1.288-0.988,1.936-2.208,1.943-3.672c0.006-1.5-0.6-2.66-1.818-3.493c-1.219-0.833-3.358-1.558-6.417-2.184
			c-5.317-1.028-9.338-2.437-12.063-4.228c-2.726-1.788-4.083-4.421-4.073-7.838c0.011-3.379,1.562-6.184,4.654-8.332
			c3.091-2.15,6.973-3.216,11.642-3.274c3.455-0.003,6.599,0.457,9.434,1.352c2.834,0.896,5.213,2.078,7.14,3.539
			C179.581,46.418,179.569,49.024,179.557,51.631z"/>
		<path class="st0" d="M223.36,39.351c-0.012,3.108-0.025,6.215-0.037,9.323c-2.305,0.037-4.609,0.077-6.914,0.118
			c-0.118-1.318-0.235-2.637-0.353-3.957c-2.757,0.031-5.513,0.063-8.27,0.097c-0.039,8.443-0.077,16.886-0.116,25.329
			c1.605,0.15,3.21,0.301,4.815,0.452c-0.006,1.427-0.013,2.854-0.019,4.282c-6.22,0.41-12.437,0.868-18.652,1.375
			c0.007-1.481,0.014-2.962,0.021-4.443c1.606-0.37,3.212-0.734,4.818-1.093c0.041-8.595,0.081-17.191,0.122-25.786
			c-2.746,0.037-5.492,0.076-8.237,0.117c-0.13,1.392-0.26,2.784-0.389,4.178c-2.294,0.055-4.587,0.112-6.881,0.171
			c0.016-3.364,0.032-6.728,0.047-10.092C196.663,39.394,210.011,39.37,223.36,39.351z"/>
		<path class="st0" d="M255.253,58.165c-5.077,0.087-10.155,0.193-15.231,0.317c-0.01,3.254-0.02,6.509-0.031,9.763
			c4.843-0.176,9.687-0.326,14.531-0.451c0.137-1.345,0.273-2.689,0.41-4.032c2.287-0.05,4.574-0.096,6.862-0.137
			c-0.005,3.049-0.009,6.099-0.014,9.148c-11.88,0.288-23.756,0.754-35.626,1.398c0.005-1.395,0.011-2.79,0.016-4.185
			c1.598-0.316,3.195-0.627,4.793-0.933c0.03-8.273,0.06-16.546,0.091-24.819c-1.594-0.224-3.188-0.45-4.781-0.677
			c0.005-1.403,0.011-2.806,0.016-4.21c1.594-0.002,3.188-0.004,4.782-0.006c10.232-0.013,20.464-0.025,30.696-0.033
			c-0.005,3.057-0.009,6.115-0.014,9.172c-2.305,0.017-4.61,0.035-6.915,0.056c-0.131-1.339-0.262-2.679-0.393-4.019
			c-4.794,0.027-9.589,0.058-14.383,0.095c-0.009,2.863-0.017,5.727-0.026,8.59c5.075-0.092,10.15-0.17,15.225-0.234
			C255.26,54.7,255.257,56.433,255.253,58.165z"/>
		<path class="st0" d="M266.609,43.336c0.001-1.344,0.003-2.689,0.004-4.033c6.201-0.005,12.402-0.009,18.603-0.013
			c0.001,1.335,0.001,2.671,0.002,4.006c-1.605,0.229-3.209,0.46-4.814,0.69c0.001,7.937,0.002,15.873,0.002,23.809
			c1.609,0.216,3.217,0.434,4.826,0.655c0.001,1.328,0.002,2.656,0.002,3.984c-6.22,0.029-12.439,0.106-18.658,0.232
			c0.001-1.337,0.003-2.673,0.004-4.01c1.608-0.258,3.217-0.512,4.825-0.763c0.005-7.962,0.011-15.923,0.016-23.885
			C269.818,43.784,268.214,43.56,266.609,43.336z"/>
		<path class="st0" d="M334.547,39.278c0.006,1.368,0.013,2.736,0.019,4.104c-1.604,0.226-3.207,0.452-4.811,0.676
			c0.042,9.669,0.084,19.338,0.126,29.007c-3-0.099-6.001-0.186-9.001-0.262c-6.091-7.675-12.171-15.2-18.24-22.667
			c-0.062,0.008-0.124,0.015-0.186,0.023c0.012,5.883,0.024,11.765,0.037,17.648c1.609,0.241,3.218,0.486,4.827,0.734
			c0.003,1.332,0.007,2.665,0.01,3.997c-6.219-0.087-12.439-0.125-18.659-0.114c-0.001-1.328-0.002-2.655-0.004-3.983
			c1.598-0.23,3.196-0.457,4.794-0.682c-0.01-7.928-0.02-15.856-0.03-23.785c-1.595-0.228-3.19-0.455-4.785-0.681
			c-0.001-1.335-0.002-2.67-0.004-4.005c1.594-0.001,3.188-0.001,4.783-0.002c3.003-0.001,6.005-0.002,9.008-0.003
			c6.062,7.446,12.137,14.934,18.223,22.557c0.062-0.007,0.124-0.013,0.186-0.02c-0.022-5.933-0.043-11.866-0.065-17.798
			c-1.606-0.236-3.212-0.47-4.817-0.704c-0.004-1.346-0.009-2.693-0.013-4.039c4.597-0.001,9.194-0.001,13.79-0.001
			C331.339,39.278,332.943,39.278,334.547,39.278z"/>
		<path class="st0" d="M368.485,39.286c0.009,1.438,0.018,2.876,0.027,4.313c-1.603,0.232-3.206,0.462-4.809,0.69
			c0.038,6.156,0.076,12.312,0.114,18.469c0.014,2.332,0.823,4.113,2.426,5.358c1.603,1.245,3.794,1.953,6.574,2.119
			c2.82,0.168,5.029-0.278,6.627-1.367c1.597-1.086,2.388-2.851,2.373-5.283c-0.042-6.371-0.083-12.742-0.125-19.112
			c-1.596-0.27-3.192-0.536-4.788-0.8c-0.009-1.461-0.019-2.922-0.028-4.383c6.201,0.003,12.402,0.007,18.603,0.011
			c0.01,1.521,0.02,3.042,0.03,4.562c-1.602,0.241-3.205,0.48-4.807,0.717c0.043,6.496,0.085,12.991,0.128,19.487
			c0.028,4.191-1.612,7.315-4.92,9.315c-3.309,2.005-7.661,2.765-13.055,2.386c-5.375-0.377-9.723-1.732-13.042-4.047
			c-3.32-2.318-4.99-5.397-5.013-9.308c-0.035-6.067-0.071-12.133-0.106-18.199c-1.596-0.252-3.191-0.501-4.787-0.749
			c-0.008-1.395-0.016-2.79-0.023-4.185c1.594,0,3.188,0,4.782,0.001c3.003,0.001,6.006,0.002,9.009,0.003
			C365.277,39.285,366.881,39.285,368.485,39.286z"/>
		<path class="st0" d="M429.791,52.496c-2.25-0.086-4.501-0.169-6.751-0.251c-0.401-1.867-0.802-3.728-1.203-5.583
			c-0.784-0.459-1.927-0.868-3.431-1.223c-1.502-0.356-3.098-0.542-4.783-0.568c-2.467-0.038-4.373,0.39-5.713,1.264
			c-1.342,0.875-2.009,2.015-1.999,3.432c0.009,1.312,0.719,2.407,2.133,3.303c1.413,0.896,3.85,1.884,7.309,2.999
			c4.962,1.434,8.726,3.271,11.294,5.489c2.569,2.215,3.861,5.052,3.878,8.439c0.018,3.54-1.488,6.184-4.514,7.873
			c-3.028,1.694-7.026,2.225-11.997,1.701c-3.555-0.374-6.769-1.191-9.642-2.429c-2.874-1.238-5.273-2.77-7.196-4.602
			c-0.017-2.636-0.034-5.272-0.051-7.908c2.324,0.138,4.648,0.281,6.971,0.429c0.33,1.846,0.66,3.696,0.99,5.55
			c0.909,0.706,2.139,1.332,3.695,1.882c1.554,0.55,3.287,0.913,5.198,1.084c2.466,0.221,4.337-0.05,5.616-0.835
			c1.278-0.782,1.913-1.937,1.905-3.45c-0.009-1.55-0.626-2.843-1.855-3.865c-1.228-1.021-3.375-2.043-6.443-3.039
			c-5.331-1.674-9.372-3.444-12.118-5.366c-2.747-1.922-4.13-4.404-4.149-7.507c-0.02-3.067,1.507-5.545,4.578-7.498
			c3.073-1.949,6.942-2.985,11.611-3.043c3.455-0.002,6.604,0.457,9.448,1.41c2.842,0.953,5.234,2.243,7.176,3.875
			C429.762,46.87,429.777,49.683,429.791,52.496z"/>
		<path class="st0" d="M431.112,75.726c1.067-0.031,2.133-0.062,3.2-0.093c4.487-11.623,8.982-23.696,13.491-36.286
			c3.075,0.003,6.149,0.007,9.224,0.011c4.559,12.96,9.101,26.467,13.618,40.587c1.064,0.301,2.129,0.605,3.193,0.912
			c0.001,1.889,0.003,3.778,0.004,5.667c-5.069-0.784-10.143-1.536-15.219-2.255c-0.005-1.799-0.009-3.599-0.014-5.398
			c1.034-0.056,2.068-0.113,3.101-0.17c-0.66-2.159-1.32-4.305-1.98-6.437c-4.837-0.505-9.676-0.987-14.518-1.449
			c-0.649,1.912-1.297,3.812-1.945,5.701c1.036,0.292,2.072,0.587,3.108,0.885c0.007,1.733,0.013,3.466,0.02,5.199
			c-5.082-0.667-10.168-1.3-15.257-1.902C431.129,79.041,431.121,77.384,431.112,75.726z M447.311,64.614
			c3.427,0.264,6.853,0.537,10.278,0.819c-1.696-5.397-3.395-10.709-5.096-15.94c-0.061-0.002-0.123-0.004-0.184-0.006
			C450.641,54.607,448.975,59.648,447.311,64.614z"/>
	</g>
	<path class="st0" d="M290.806,97.712c70.118-0.049,134.404,4.529,184.468,12.181c-41.539-12.215-108.691-20.124-184.474-20.072
		s-142.924,8.055-184.446,20.328C156.409,102.428,220.689,97.76,290.806,97.712z"/>
</g>
</svg>
